<svg width="270" height="460" viewBox="0 0 270 460" fill="none" xmlns="http://www.w3.org/2000/svg">
<rect x="15" width="240" height="460" rx="64" fill="#E5E5E5"/>
<rect y="75" width="45" height="74" rx="16" fill="#E5E5E5"/>
<rect x="225" y="75" width="45" height="74" rx="16" fill="#E5E5E5"/>
<rect y="311" width="45" height="74" rx="16" fill="#E5E5E5"/>
<rect x="225" y="311" width="45" height="74" rx="16" fill="#E5E5E5"/>
</svg>
