<svg width="24" height="24" viewBox="0 0 18 14" fill="none" xmlns="http://www.w3.org/2000/svg">
<path d="M1 7H17" stroke="#272B30" stroke-width="2" stroke-linecap="round" stroke-linejoin="round"/>
<path d="M1 1H17" stroke="#272B30" stroke-width="2" stroke-linecap="round" stroke-linejoin="round"/>
<path d="M1 13H17" stroke="#272B30" stroke-width="2" stroke-linecap="round" stroke-linejoin="round"/>
</svg>
