<svg width="20" height="20" viewBox="0 0 20 20" fill="none" xmlns="http://www.w3.org/2000/svg">
<path d="M17 1H3C1.89543 1 1 1.89543 1 3V17C1 18.1046 1.89543 19 3 19H17C18.1046 19 19 18.1046 19 17V3C19 1.89543 18.1046 1 17 1Z" stroke="#17A684" stroke-width="2" stroke-linecap="round" stroke-linejoin="round"/>
<path d="M6 10H14" stroke="#17A684" stroke-width="2" stroke-linecap="round" stroke-linejoin="round"/>
<path d="M10 6V14" stroke="#17A684" stroke-width="2" stroke-linecap="round" stroke-linejoin="round"/>
</svg>
